+++ IGW-1 with via 'cli': executing command 'show lisp service ipv4' +++
show lisp service ipv4
% LISP is not running.
IGW-1#
+++ IGW-1 with via 'cli': executing command 'show lisp service ipv4 summary' +++
show lisp service ipv4 summary
% LISP is not running.
IGW-1#
+++ IGW-1 with via 'cli': executing command 'show lisp service ipv6 summary' +++
show lisp service ipv6 summary
% LISP is not running.
IGW-1#
+++ IGW-1 with via 'cli': executing command 'show lisp service ipv6' +++
show lisp service ipv6
% LISP is not running.
IGW-1#
+++ IGW-1 with via 'cli': executing command 'show lisp service ethernet summary' +++
show lisp service ethernet summary
% LISP is not running.
IGW-1#
+++ IGW-1 with via 'cli': executing command 'show lisp service ethernet' +++
show lisp service ethernet
% LISP is not running.
IGW-1#
 ethernet summary
Parser Output is empty
Could not learn <class 'genie.libs.parser.ios.show_lisp.ShowLispService'>
Show Command: show lisp all service ethernet
Parser Output is empty
+====================================================================================================================================================+
| Commands for learning feature 'Lisp'                                                                                                               |
+====================================================================================================================================================+
| - Commands with empty output                                                                                                                       |
|----------------------------------------------------------------------------------------------------------------------------------------------------|
|   cmd: <class 'genie.libs.parser.ios.show_lisp.ShowLispService'>, arguments: {'service':'ipv4'}                                                    |
|   cmd: <class 'genie.libs.parser.ios.show_lisp.ShowLispServiceSummary'>, arguments: {'service':'ipv4'}                                             |
|   cmd: <class 'genie.libs.parser.ios.show_lisp.ShowLispServiceSummary'>, arguments: {'service':'ipv6'}                                             |
|   cmd: <class 'genie.libs.parser.ios.show_lisp.ShowLispService'>, arguments: {'service':'ipv6'}                                                    |
|   cmd: <class 'genie.libs.parser.ios.show_lisp.ShowLispServiceSummary'>, arguments: {'service':'ethernet'}                                         |
|   cmd: <class 'genie.libs.parser.ios.show_lisp.ShowLispService'>, arguments: {'service':'ethernet'}                                                |
|====================================================================================================================================================|
