+++ IGW-1 with via 'cli': executing command 'show ip msdp peer' +++
show ip msdp peer
IGW-1#
+++ IGW-1 with via 'cli': executing command 'show ip msdp sa-cache' +++
show ip msdp sa-cache
MSDP Source-Active Cache - 0 entries
IGW-1#
Could not learn <class 'genie.libs.parser.iosxe.show_msdp.ShowIpMsdpSaCache'>
Parser Output is empty
+====================================================================================================================================================+
| Commands for learning feature 'Msdp'                                                                                                               |
+====================================================================================================================================================+
| - Commands with empty output                                                                                                                       |
|----------------------------------------------------------------------------------------------------------------------------------------------------|
|   cmd: <class 'genie.libs.parser.iosxe.show_msdp.ShowIpMsdpPeer'>                                                                                  |
|   cmd: <class 'genie.libs.parser.iosxe.show_msdp.ShowIpMsdpSaCache'>                                                                               |
|====================================================================================================================================================|
