{
  "_exclude": [
    "age",
    "uptime",
    "last_change",
    "cksum",
    "seq",
    "dead_timer",
    "hello_timer",
    "checksum",
    "seq_num",
    "statistics",
    "lsas",
    "last_state_change",
    "bdr_ip_addr",
    "dr_ip_addr",
    "state",
    "bdr_router_id",
    "dr_router_id",
    "area_scope_lsa_cksum_sum"
  ],
  "attributes": null,
  "commands": null,
  "connections": null,
  "context_manager": {},
  "info": {
    "vrf": {
      "default": {
        "address_family": {
          "ipv4": {
            "instance": {
              "1": {
                "adjacency_stagger": {
                  "initial_number": 300,
                  "maximum_number": 300
                },
                "areas": {
                  "0.0.0.0": {
                    "area_id": "0.0.0.0",
                    "area_type": "normal",
                    "database": {
                      "lsa_types": {
                        "1": {
                          "lsa_type": 1,
                          "lsas": {
                            "192.168.254.1 192.168.254.1": {
                              "adv_router": "192.168.254.1",
                              "lsa_id": "192.168.254.1",
                              "ospfv2": {
                                "body": {
                                  "router": {
                                    "links": {
                                      "10.1.3.0": {
                                        "link_data": "255.255.255.0",
                                        "link_id": "10.1.3.0",
                                        "topologies": {
                                          "0": {
                                            "metric": 10,
                                            "mt_id": 0
                                          }
                                        },
                                        "type": "stub network"
                                      },
                                      "10.1.7.0": {
                                        "link_data": "255.255.255.0",
                                        "link_id": "10.1.7.0",
                                        "topologies": {
                                          "0": {
                                            "metric": 10,
                                            "mt_id": 0
                                          }
                                        },
                                        "type": "stub network"
                                      },
                                      "192.168.137.2": {
                                        "link_data": "192.168.137.3",
                                        "link_id": "192.168.137.2",
                                        "topologies": {
                                          "0": {
                                            "metric": 10,
                                            "mt_id": 0
                                          }
                                        },
                                        "type": "transit network"
                                      },
                                      "192.168.254.1": {
                                        "link_data": "255.255.255.255",
                                        "link_id": "192.168.254.1",
                                        "topologies": {
                                          "0": {
                                            "metric": 1,
                                            "mt_id": 0
                                          }
                                        },
                                        "type": "stub network"
                                      },
                                      "192.168.254.3": {
                                        "link_data": "10.1.3.1",
                                        "link_id": "192.168.254.3",
                                        "topologies": {
                                          "0": {
                                            "metric": 10,
                                            "mt_id": 0
                                          }
                                        },
                                        "type": "another router (point-to-point)"
                                      },
                                      "192.168.254.7": {
                                        "link_data": "10.1.7.1",
                                        "link_id": "192.168.254.7",
                                        "topologies": {
                                          "0": {
                                            "metric": 10,
                                            "mt_id": 0
                                          }
                                        },
                                        "type": "another router (point-to-point)"
                                      }
                                    },
                                    "num_of_links": 6
                                  }
                                },
                                "header": {
                                  "adv_router": "192.168.254.1",
                                  "age": 1746,
                                  "checksum": "0xA2B2",
                                  "length": 96,
                                  "lsa_id": "192.168.254.1",
                                  "option": "None",
                                  "seq_num": "8000001C",
                                  "type": 1
                                }
                              }
                            },
                            "192.168.254.2 192.168.254.2": {
                              "adv_router": "192.168.254.2",
                              "lsa_id": "192.168.254.2",
                              "ospfv2": {
                                "body": {
                                  "router": {
                                    "links": {
                                      "10.2.6.0": {
                                        "link_data": "255.255.255.0",
                                        "link_id": "10.2.6.0",
                                        "topologies": {
                                          "0": {
                                            "metric": 10,
                                            "mt_id": 0
                                          }
                                        },
                                        "type": "stub network"
                                      },
                                      "10.2.8.0": {
                                        "link_data": "255.255.255.0",
                                        "link_id": "10.2.8.0",
                                        "topologies": {
                                          "0": {
                                            "metric": 200,
                                            "mt_id": 0
                                          }
                                        },
                                        "type": "stub network"
                                      },
                                      "192.168.137.2": {
                                        "link_data": "192.168.137.2",
                                        "link_id": "192.168.137.2",
                                        "topologies": {
                                          "0": {
                                            "metric": 200,
                                            "mt_id": 0
                                          }
                                        },
                                        "type": "transit network"
                                      },
                                      "192.168.254.2": {
                                        "link_data": "255.255.255.255",
                                        "link_id": "192.168.254.2",
                                        "topologies": {
                                          "0": {
                                            "metric": 1,
                                            "mt_id": 0
                                          }
                                        },
                                        "type": "stub network"
                                      },
                                      "192.168.254.6": {
                                        "link_data": "10.2.6.2",
                                        "link_id": "192.168.254.6",
                                        "topologies": {
                                          "0": {
                                            "metric": 10,
                                            "mt_id": 0
                                          }
                                        },
                                        "type": "another router (point-to-point)"
                                      },
                                      "192.168.254.8": {
                                        "link_data": "10.2.8.2",
                                        "link_id": "192.168.254.8",
                                        "topologies": {
                                          "0": {
                                            "metric": 200,
                                            "mt_id": 0
                                          }
                                        },
                                        "type": "another router (point-to-point)"
                                      }
                                    },
                                    "num_of_links": 6
                                  }
                                },
                                "header": {
                                  "adv_router": "192.168.254.2",
                                  "age": 1677,
                                  "checksum": "0xF013",
                                  "length": 96,
                                  "lsa_id": "192.168.254.2",
                                  "option": "None",
                                  "seq_num": "8000001D",
                                  "type": 1
                                }
                              }
                            },
                            "192.168.254.3 192.168.254.3": {
                              "adv_router": "192.168.254.3",
                              "lsa_id": "192.168.254.3",
                              "ospfv2": {
                                "body": {
                                  "router": {
                                    "links": {
                                      "10.1.3.0": {
                                        "link_data": "255.255.255.0",
                                        "link_id": "10.1.3.0",
                                        "topologies": {
                                          "0": {
                                            "metric": 10,
                                            "mt_id": 0
                                          }
                                        },
                                        "type": "stub network"
                                      },
                                      "10.3.4.0": {
                                        "link_data": "255.255.255.0",
                                        "link_id": "10.3.4.0",
                                        "topologies": {
                                          "0": {
                                            "metric": 10,
                                            "mt_id": 0
                                          }
                                        },
                                        "type": "stub network"
                                      },
                                      "192.168.254.1": {
                                        "link_data": "10.1.3.3",
                                        "link_id": "192.168.254.1",
                                        "topologies": {
                                          "0": {
                                            "metric": 10,
                                            "mt_id": 0
                                          }
                                        },
                                        "type": "another router (point-to-point)"
                                      },
                                      "192.168.254.3": {
                                        "link_data": "255.255.255.255",
                                        "link_id": "192.168.254.3",
                                        "topologies": {
                                          "0": {
                                            "metric": 1,
                                            "mt_id": 0
                                          }
                                        },
                                        "type": "stub network"
                                      },
                                      "192.168.254.4": {
                                        "link_data": "10.3.4.3",
                                        "link_id": "192.168.254.4",
                                        "topologies": {
                                          "0": {
                                            "metric": 10,
                                            "mt_id": 0
                                          }
                                        },
                                        "type": "another router (point-to-point)"
                                      }
                                    },
                                    "num_of_links": 5
                                  }
                                },
                                "header": {
                                  "adv_router": "192.168.254.3",
                                  "age": 1685,
                                  "checksum": "0x6DED",
                                  "length": 84,
                                  "lsa_id": "192.168.254.3",
                                  "option": "None",
                                  "seq_num": "80000017",
                                  "type": 1
                                }
                              }
                            },
                            "192.168.254.4 192.168.254.4": {
                              "adv_router": "192.168.254.4",
                              "lsa_id": "192.168.254.4",
                              "ospfv2": {
                                "body": {
                                  "router": {
                                    "links": {
                                      "10.3.4.0": {
                                        "link_data": "255.255.255.0",
                                        "link_id": "10.3.4.0",
                                        "topologies": {
                                          "0": {
                                            "metric": 10,
                                            "mt_id": 0
                                          }
                                        },
                                        "type": "stub network"
                                      },
                                      "10.4.5.0": {
                                        "link_data": "255.255.255.0",
                                        "link_id": "10.4.5.0",
                                        "topologies": {
                                          "0": {
                                            "metric": 10,
                                            "mt_id": 0
                                          }
                                        },
                                        "type": "stub network"
                                      },
                                      "10.4.6.0": {
                                        "link_data": "255.255.255.0",
                                        "link_id": "10.4.6.0",
                                        "topologies": {
                                          "0": {
                                            "metric": 200,
                                            "mt_id": 0
                                          }
                                        },
                                        "type": "stub network"
                                      },
                                      "192.168.254.3": {
                                        "link_data": "10.3.4.4",
                                        "link_id": "192.168.254.3",
                                        "topologies": {
                                          "0": {
                                            "metric": 10,
                                            "mt_id": 0
                                          }
                                        },
                                        "type": "another router (point-to-point)"
                                      },
                                      "192.168.254.4": {
                                        "link_data": "255.255.255.255",
                                        "link_id": "192.168.254.4",
                                        "topologies": {
                                          "0": {
                                            "metric": 1,
                                            "mt_id": 0
                                          }
                                        },
                                        "type": "stub network"
                                      },
                                      "192.168.254.5": {
                                        "link_data": "10.4.5.4",
                                        "link_id": "192.168.254.5",
                                        "topologies": {
                                          "0": {
                                            "metric": 10,
                                            "mt_id": 0
                                          }
                                        },
                                        "type": "another router (point-to-point)"
                                      },
                                      "192.168.254.6": {
                                        "link_data": "10.4.6.4",
                                        "link_id": "192.168.254.6",
                                        "topologies": {
                                          "0": {
                                            "metric": 200,
                                            "mt_id": 0
                                          }
                                        },
                                        "type": "another router (point-to-point)"
                                      }
                                    },
                                    "num_of_links": 7
                                  }
                                },
                                "header": {
                                  "adv_router": "192.168.254.4",
                                  "age": 1505,
                                  "checksum": "0xB746",
                                  "length": 108,
                                  "lsa_id": "192.168.254.4",
                                  "option": "None",
                                  "seq_num": "80000018",
                                  "type": 1
                                }
                              }
                            },
                            "192.168.254.5 192.168.254.5": {
                              "adv_router": "192.168.254.5",
                              "lsa_id": "192.168.254.5",
                              "ospfv2": {
                                "body": {
                                  "router": {
                                    "links": {
                                      "10.4.5.0": {
                                        "link_data": "255.255.255.0",
                                        "link_id": "10.4.5.0",
                                        "topologies": {
                                          "0": {
                                            "metric": 10,
                                            "mt_id": 0
                                          }
                                        },
                                        "type": "stub network"
                                      },
                                      "10.5.6.0": {
                                        "link_data": "255.255.255.0",
                                        "link_id": "10.5.6.0",
                                        "topologies": {
                                          "0": {
                                            "metric": 10,
                                            "mt_id": 0
                                          }
                                        },
                                        "type": "stub network"
                                      },
                                      "192.168.254.4": {
                                        "link_data": "10.4.5.5",
                                        "link_id": "192.168.254.4",
                                        "topologies": {
                                          "0": {
                                            "metric": 10,
                                            "mt_id": 0
                                          }
                                        },
                                        "type": "another router (point-to-point)"
                                      },
                                      "192.168.254.5": {
                                        "link_data": "255.255.255.255",
                                        "link_id": "192.168.254.5",
                                        "topologies": {
                                          "0": {
                                            "metric": 1,
                                            "mt_id": 0
                                          }
                                        },
                                        "type": "stub network"
                                      },
                                      "192.168.254.6": {
                                        "link_data": "10.5.6.5",
                                        "link_id": "192.168.254.6",
                                        "topologies": {
                                          "0": {
                                            "metric": 10,
                                            "mt_id": 0
                                          }
                                        },
                                        "type": "another router (point-to-point)"
                                      }
                                    },
                                    "num_of_links": 5
                                  }
                                },
                                "header": {
                                  "adv_router": "192.168.254.5",
                                  "age": 1477,
                                  "checksum": "0x3406",
                                  "length": 84,
                                  "lsa_id": "192.168.254.5",
                                  "option": "None",
                                  "seq_num": "80000017",
                                  "type": 1
                                }
                              }
                            },
                            "192.168.254.6 192.168.254.6": {
                              "adv_router": "192.168.254.6",
                              "lsa_id": "192.168.254.6",
                              "ospfv2": {
                                "body": {
                                  "router": {
                                    "links": {
                                      "10.2.6.0": {
                                        "link_data": "255.255.255.0",
                                        "link_id": "10.2.6.0",
                                        "topologies": {
                                          "0": {
                                            "metric": 200,
                                            "mt_id": 0
                                          }
                                        },
                                        "type": "stub network"
                                      },
                                      "10.4.6.0": {
                                        "link_data": "255.255.255.0",
                                        "link_id": "10.4.6.0",
                                        "topologies": {
                                          "0": {
                                            "metric": 200,
                                            "mt_id": 0
                                          }
                                        },
                                        "type": "stub network"
                                      },
                                      "10.5.6.0": {
                                        "link_data": "255.255.255.0",
                                        "link_id": "10.5.6.0",
                                        "topologies": {
                                          "0": {
                                            "metric": 10,
                                            "mt_id": 0
                                          }
                                        },
                                        "type": "stub network"
                                      },
                                      "192.168.254.2": {
                                        "link_data": "10.2.6.6",
                                        "link_id": "192.168.254.2",
                                        "topologies": {
                                          "0": {
                                            "metric": 200,
                                            "mt_id": 0
                                          }
                                        },
                                        "type": "another router (point-to-point)"
                                      },
                                      "192.168.254.4": {
                                        "link_data": "10.4.6.6",
                                        "link_id": "192.168.254.4",
                                        "topologies": {
                                          "0": {
                                            "metric": 200,
                                            "mt_id": 0
                                          }
                                        },
                                        "type": "another router (point-to-point)"
                                      },
                                      "192.168.254.5": {
                                        "link_data": "10.5.6.6",
                                        "link_id": "192.168.254.5",
                                        "topologies": {
                                          "0": {
                                            "metric": 10,
                                            "mt_id": 0
                                          }
                                        },
                                        "type": "another router (point-to-point)"
                                      },
                                      "192.168.254.6": {
                                        "link_data": "255.255.255.255",
                                        "link_id": "192.168.254.6",
                                        "topologies": {
                                          "0": {
                                            "metric": 1,
                                            "mt_id": 0
                                          }
                                        },
                                        "type": "stub network"
                                      }
                                    },
                                    "num_of_links": 7
                                  }
                                },
                                "header": {
                                  "adv_router": "192.168.254.6",
                                  "age": 1279,
                                  "checksum": "0x7EF2",
                                  "length": 108,
                                  "lsa_id": "192.168.254.6",
                                  "option": "None",
                                  "seq_num": "80000018",
                                  "type": 1
                                }
                              }
                            },
                            "192.168.254.7 192.168.254.7": {
                              "adv_router": "192.168.254.7",
                              "lsa_id": "192.168.254.7",
                              "ospfv2": {
                                "body": {
                                  "router": {
                                    "links": {
                                      "10.1.7.0": {
                                        "link_data": "255.255.255.0",
                                        "link_id": "10.1.7.0",
                                        "topologies": {
                                          "0": {
                                            "metric": 10,
                                            "mt_id": 0
                                          }
                                        },
                                        "type": "stub network"
                                      },
                                      "10.7.8.0": {
                                        "link_data": "255.255.255.0",
                                        "link_id": "10.7.8.0",
                                        "topologies": {
                                          "0": {
                                            "metric": 10,
                                            "mt_id": 0
                                          }
                                        },
                                        "type": "stub network"
                                      },
                                      "192.168.254.1": {
                                        "link_data": "10.1.7.7",
                                        "link_id": "192.168.254.1",
                                        "topologies": {
                                          "0": {
                                            "metric": 10,
                                            "mt_id": 0
                                          }
                                        },
                                        "type": "another router (point-to-point)"
                                      },
                                      "192.168.254.7": {
                                        "link_data": "255.255.255.255",
                                        "link_id": "192.168.254.7",
                                        "topologies": {
                                          "0": {
                                            "metric": 1,
                                            "mt_id": 0
                                          }
                                        },
                                        "type": "stub network"
                                      },
                                      "192.168.254.8": {
                                        "link_data": "10.7.8.7",
                                        "link_id": "192.168.254.8",
                                        "topologies": {
                                          "0": {
                                            "metric": 10,
                                            "mt_id": 0
                                          }
                                        },
                                        "type": "another router (point-to-point)"
                                      }
                                    },
                                    "num_of_links": 5
                                  }
                                },
                                "header": {
                                  "adv_router": "192.168.254.7",
                                  "age": 1546,
                                  "checksum": "0x52D8",
                                  "length": 84,
                                  "lsa_id": "192.168.254.7",
                                  "option": "None",
                                  "seq_num": "80000017",
                                  "type": 1
                                }
                              }
                            },
                            "192.168.254.8 192.168.254.8": {
                              "adv_router": "192.168.254.8",
                              "lsa_id": "192.168.254.8",
                              "ospfv2": {
                                "body": {
                                  "router": {
                                    "links": {
                                      "10.2.8.0": {
                                        "link_data": "255.255.255.0",
                                        "link_id": "10.2.8.0",
                                        "topologies": {
                                          "0": {
                                            "metric": 200,
                                            "mt_id": 0
                                          }
                                        },
                                        "type": "stub network"
                                      },
                                      "10.7.8.0": {
                                        "link_data": "255.255.255.0",
                                        "link_id": "10.7.8.0",
                                        "topologies": {
                                          "0": {
                                            "metric": 10,
                                            "mt_id": 0
                                          }
                                        },
                                        "type": "stub network"
                                      },
                                      "192.168.254.2": {
                                        "link_data": "10.2.8.8",
                                        "link_id": "192.168.254.2",
                                        "topologies": {
                                          "0": {
                                            "metric": 200,
                                            "mt_id": 0
                                          }
                                        },
                                        "type": "another router (point-to-point)"
                                      },
                                      "192.168.254.7": {
                                        "link_data": "10.7.8.8",
                                        "link_id": "192.168.254.7",
                                        "topologies": {
                                          "0": {
                                            "metric": 10,
                                            "mt_id": 0
                                          }
                                        },
                                        "type": "another router (point-to-point)"
                                      },
                                      "192.168.254.8": {
                                        "link_data": "255.255.255.255",
                                        "link_id": "192.168.254.8",
                                        "topologies": {
                                          "0": {
                                            "metric": 1,
                                            "mt_id": 0
                                          }
                                        },
                                        "type": "stub network"
                                      }
                                    },
                                    "num_of_links": 5
                                  }
                                },
                                "header": {
                                  "adv_router": "192.168.254.8",
                                  "age": 1662,
                                  "checksum": "0x9212",
                                  "length": 84,
                                  "lsa_id": "192.168.254.8",
                                  "option": "None",
                                  "seq_num": "80000017",
                                  "type": 1
                                }
                              }
                            },
                            "192.168.254.99 192.168.254.99": {
                              "adv_router": "192.168.254.99",
                              "lsa_id": "192.168.254.99",
                              "ospfv2": {
                                "body": {
                                  "router": {
                                    "links": {
                                      "192.168.137.2": {
                                        "link_data": "192.168.137.4",
                                        "link_id": "192.168.137.2",
                                        "topologies": {
                                          "0": {
                                            "metric": 10,
                                            "mt_id": 0
                                          }
                                        },
                                        "type": "transit network"
                                      },
                                      "192.168.254.99": {
                                        "link_data": "255.255.255.255",
                                        "link_id": "192.168.254.99",
                                        "topologies": {
                                          "0": {
                                            "metric": 1,
                                            "mt_id": 0
                                          }
                                        },
                                        "type": "stub network"
                                      }
                                    },
                                    "num_of_links": 2
                                  }
                                },
                                "header": {
                                  "adv_router": "192.168.254.99",
                                  "age": 1711,
                                  "checksum": "0xB3FC",
                                  "length": 48,
                                  "lsa_id": "192.168.254.99",
                                  "option": "None",
                                  "seq_num": "8000001A",
                                  "type": 1
                                }
                              }
                            }
                          }
                        },
                        "2": {
                          "lsa_type": 2,
                          "lsas": {
                            "192.168.137.2 192.168.254.2": {
                              "adv_router": "192.168.254.2",
                              "lsa_id": "192.168.137.2",
                              "ospfv2": {
                                "body": {
                                  "network": {
                                    "attached_routers": {
                                      "192.168.254.1": {},
                                      "192.168.254.2": {},
                                      "192.168.254.99": {}
                                    },
                                    "network_mask": "255.255.255.0"
                                  }
                                },
                                "header": {
                                  "adv_router": "192.168.254.2",
                                  "age": 1677,
                                  "checksum": "0x46DB",
                                  "length": 36,
                                  "lsa_id": "192.168.137.2",
                                  "option": "None",
                                  "seq_num": "80000016",
                                  "type": 2
                                }
                              }
                            }
                          }
                        }
                      }
                    },
                    "interfaces": {
                      "Ethernet0/0": {
                        "bfd": {
                          "enable": false
                        },
                        "cost": 10,
                        "dead_interval": 40,
                        "demand_circuit": false,
                        "enable": true,
                        "hello_interval": 10,
                        "hello_timer": "00:00:04",
                        "interface_type": "point-to-point",
                        "lls": true,
                        "name": "Ethernet0/0",
                        "neighbors": {
                          "192.168.254.3": {
                            "address": "10.1.3.3",
                            "bdr_ip_addr": "0.0.0.0",
                            "dead_timer": "00:00:39",
                            "dr_ip_addr": "0.0.0.0",
                            "neighbor_router_id": "192.168.254.3",
                            "state": "full",
                            "statistics": {
                              "nbr_event_count": 6,
                              "nbr_retrans_qlen": 0
                            }
                          }
                        },
                        "passive": false,
                        "retransmit_interval": 5,
                        "state": "point-to-point",
                        "transmit_delay": 1
                      },
                      "Ethernet0/2": {
                        "bfd": {
                          "enable": false
                        },
                        "cost": 10,
                        "dead_interval": 40,
                        "demand_circuit": false,
                        "enable": true,
                        "hello_interval": 10,
                        "hello_timer": "00:00:07",
                        "interface_type": "point-to-point",
                        "lls": true,
                        "name": "Ethernet0/2",
                        "neighbors": {
                          "192.168.254.7": {
                            "address": "10.1.7.7",
                            "bdr_ip_addr": "0.0.0.0",
                            "dead_timer": "00:00:38",
                            "dr_ip_addr": "0.0.0.0",
                            "neighbor_router_id": "192.168.254.7",
                            "state": "full",
                            "statistics": {
                              "nbr_event_count": 6,
                              "nbr_retrans_qlen": 0
                            }
                          }
                        },
                        "passive": false,
                        "retransmit_interval": 5,
                        "state": "point-to-point",
                        "transmit_delay": 1
                      },
                      "Ethernet0/3": {
                        "bdr_ip_addr": "192.168.137.3",
                        "bdr_router_id": "192.168.254.1",
                        "bfd": {
                          "enable": false
                        },
                        "cost": 10,
                        "dead_interval": 40,
                        "demand_circuit": false,
                        "dr_ip_addr": "192.168.137.2",
                        "dr_router_id": "192.168.254.2",
                        "enable": true,
                        "hello_interval": 10,
                        "hello_timer": "00:00:07",
                        "interface_type": "broadcast",
                        "lls": true,
                        "name": "Ethernet0/3",
                        "neighbors": {
                          "192.168.254.2": {
                            "address": "192.168.137.2",
                            "bdr_ip_addr": "192.168.137.3",
                            "dead_timer": "00:00:38",
                            "dr_ip_addr": "192.168.137.2",
                            "neighbor_router_id": "192.168.254.2",
                            "state": "full",
                            "statistics": {
                              "nbr_event_count": 6,
                              "nbr_retrans_qlen": 0
                            }
                          },
                          "192.168.254.99": {
                            "address": "192.168.137.4",
                            "bdr_ip_addr": "192.168.137.3",
                            "dead_timer": "00:00:32",
                            "dr_ip_addr": "192.168.137.2",
                            "neighbor_router_id": "192.168.254.99",
                            "state": "full",
                            "statistics": {
                              "nbr_event_count": 6,
                              "nbr_retrans_qlen": 0
                            }
                          }
                        },
                        "passive": false,
                        "priority": 10,
                        "retransmit_interval": 5,
                        "state": "bdr",
                        "transmit_delay": 1
                      },
                      "Loopback0": {
                        "bfd": {
                          "enable": false
                        },
                        "cost": 1,
                        "demand_circuit": false,
                        "enable": true,
                        "interface_type": "loopback",
                        "name": "Loopback0"
                      }
                    },
                    "mpls": {
                      "te": {
                        "enable": false
                      }
                    },
                    "statistics": {
                      "area_scope_lsa_cksum_sum": "0x054AB1",
                      "area_scope_lsa_count": 10,
                      "spf_runs_count": 16
                    }
                  }
                },
                "auto_cost": {
                  "enable": false
                },
                "bfd": {
                  "enable": false
                },
                "database_control": {
                  "max_lsa": 50000
                },
                "graceful_restart": {
                  "cisco": {
                    "enable": false,
                    "type": "cisco"
                  },
                  "ietf": {
                    "enable": false,
                    "type": "ietf"
                  }
                },
                "mpls": {
                  "ldp": {
                    "autoconfig": true,
                    "autoconfig_area_id": "0.0.0.0"
                  }
                },
                "nsr": {
                  "enable": false
                },
                "preference": {
                  "single_value": {
                    "all": 110
                  }
                },
                "router_id": "192.168.254.1",
                "spf_control": {
                  "paths": 4,
                  "throttle": {
                    "lsa": {
                      "hold": 200,
                      "maximum": 5000,
                      "start": 50
                    },
                    "spf": {
                      "hold": 200,
                      "maximum": 5000,
                      "start": 50
                    }
                  }
                },
                "stub_router": {
                  "always": {
                    "always": false,
                    "external_lsa": false,
                    "include_stub": false,
                    "summary_lsa": false
                  }
                }
              }
            }
          }
        }
      }
    }
  },
  "raw_data": false
}