{
  "Building configuration...": {},
  "Current configuration : 6993 bytes": {},
  "boot-end-marker": {},
  "boot-start-marker": {},
  "control-plane": {},
  "end": {},
  "hostname MPLS-CORE-PE1": {},
  "interface Ethernet0/0": {
    "duplex auto": {},
    "ip address 10.1.2.2 255.255.255.0": {},
    "ip ospf 1 area 0": {}
  },
  "interface Ethernet0/1": {
    "duplex auto": {},
    "ip address dhcp": {}
  },
  "interface Ethernet0/1.1289": {
    "description ford-branch-samsung-nni": {},
    "encapsulation dot1Q 1289": {},
    "ip address 10.22.80.1 255.255.255.252": {},
    "vrf forwarding ford": {}
  },
  "interface Ethernet0/1.2": {
    "description inband-management": {},
    "encapsulation dot1Q 2": {},
    "ip address 192.168.146.60 255.255.255.0": {}
  },
  "interface Ethernet0/2": {
    "duplex auto": {},
    "no ip address": {},
    "shutdown": {}
  },
  "interface Ethernet0/3": {
    "duplex auto": {},
    "no ip address": {},
    "shutdown": {}
  },
  "interface Loopback0": {
    "ip address 192.168.120.2 255.255.255.255": {},
    "ip ospf 1 area 0": {}
  },
  "ip cef": {},
  "ip domain name storm.org": {},
  "ip forward-protocol nd": {},
  "ip route vrf ford 192.168.200.1 255.255.255.255 10.22.80.2 name ford-branch-samsung-nni": {},
  "ipv6 ioam timestamp": {},
  "line aux 0": {},
  "line con 0": {
    "exec-timeout 0 0": {},
    "logging synchronous": {}
  },
  "line vty 0 4": {
    "exec-timeout 0 0": {},
    "login local": {},
    "transport input all": {}
  },
  "mmi polling-interval 60": {},
  "mmi snmp-timeout 180": {},
  "multilink bundle-name authenticated": {},
  "no aaa new-model": {},
  "no ip domain lookup": {},
  "no ip http secure-server": {},
  "no ip http server": {},
  "no ipv6 cef": {},
  "no logging console": {},
  "no mmi auto-configure": {},
  "no mmi pvc": {},
  "no service password-encryption": {},
  "redundancy": {},
  "router bgp 65000": {
    "address-family ipv4 vrf ford": {
      "redistribute connected": {},
      "redistribute static": {}
    },
    "address-family vpnv4": {
      "neighbor 192.168.120.1 activate": {},
      "neighbor 192.168.120.1 send-community extended": {}
    },
    "bgp log-neighbor-changes": {},
    "bgp router-id 192.168.120.2": {},
    "exit-address-family": {},
    "neighbor 192.168.120.1 remote-as 65000": {},
    "neighbor 192.168.120.1 update-source Loopback0": {}
  },
  "router ospf 1": {
    "mpls ldp autoconfig": {}
  },
  "service timestamps debug datetime msec": {},
  "service timestamps log datetime msec": {},
  "snmp-server community storm RO": {},
  "snmp-server enable traps aaa_server": {},
  "snmp-server enable traps atm subif": {},
  "snmp-server enable traps auth-framework sec-violation": {},
  "snmp-server enable traps bfd": {},
  "snmp-server enable traps bgp cbgp2": {},
  "snmp-server enable traps bstun": {},
  "snmp-server enable traps bulkstat collection transfer": {},
  "snmp-server enable traps ccme": {},
  "snmp-server enable traps cef resource-failure peer-state-change peer-fib-state-change inconsistency": {},
  "snmp-server enable traps cnpd": {},
  "snmp-server enable traps config": {},
  "snmp-server enable traps config-copy": {},
  "snmp-server enable traps config-ctid": {},
  "snmp-server enable traps cpu threshold": {},
  "snmp-server enable traps dial": {},
  "snmp-server enable traps diameter": {},
  "snmp-server enable traps dlsw": {},
  "snmp-server enable traps dnis": {},
  "snmp-server enable traps ds1": {},
  "snmp-server enable traps dsp card-status": {},
  "snmp-server enable traps dsp oper-state": {},
  "snmp-server enable traps dsp video-out-of-resource": {},
  "snmp-server enable traps dsp video-usage": {},
  "snmp-server enable traps eigrp": {},
  "snmp-server enable traps entity": {},
  "snmp-server enable traps ethernet cfm alarm": {},
  "snmp-server enable traps ethernet cfm cc mep-up mep-down cross-connect loop config": {},
  "snmp-server enable traps ethernet cfm crosscheck mep-missing mep-unknown service-up": {},
  "snmp-server enable traps event-manager": {},
  "snmp-server enable traps firewall serverstatus": {},
  "snmp-server enable traps flowmon": {},
  "snmp-server enable traps frame-relay": {},
  "snmp-server enable traps frame-relay multilink bundle-mismatch": {},
  "snmp-server enable traps frame-relay subif": {},
  "snmp-server enable traps fru-ctrl": {},
  "snmp-server enable traps gdoi gm-incomplete-cfg": {},
  "snmp-server enable traps gdoi gm-re-register": {},
  "snmp-server enable traps gdoi gm-registration-complete": {},
  "snmp-server enable traps gdoi gm-rekey-fail": {},
  "snmp-server enable traps gdoi gm-rekey-rcvd": {},
  "snmp-server enable traps gdoi gm-start-registration": {},
  "snmp-server enable traps gdoi ks-new-registration": {},
  "snmp-server enable traps gdoi ks-no-rsa-keys": {},
  "snmp-server enable traps gdoi ks-reg-complete": {},
  "snmp-server enable traps gdoi ks-rekey-pushed": {},
  "snmp-server enable traps hsrp": {},
  "snmp-server enable traps ike policy add": {},
  "snmp-server enable traps ike policy delete": {},
  "snmp-server enable traps ike tunnel start": {},
  "snmp-server enable traps ike tunnel stop": {},
  "snmp-server enable traps ipmobile": {},
  "snmp-server enable traps ipmulticast": {},
  "snmp-server enable traps ipsec cryptomap add": {},
  "snmp-server enable traps ipsec cryptomap attach": {},
  "snmp-server enable traps ipsec cryptomap delete": {},
  "snmp-server enable traps ipsec cryptomap detach": {},
  "snmp-server enable traps ipsec too-many-sas": {},
  "snmp-server enable traps ipsec tunnel start": {},
  "snmp-server enable traps ipsec tunnel stop": {},
  "snmp-server enable traps ipsla": {},
  "snmp-server enable traps isdn call-information": {},
  "snmp-server enable traps isdn chan-not-avail": {},
  "snmp-server enable traps isdn ietf": {},
  "snmp-server enable traps isdn layer2": {},
  "snmp-server enable traps isis": {},
  "snmp-server enable traps l2tun pseudowire status": {},
  "snmp-server enable traps l2tun session": {},
  "snmp-server enable traps memory bufferpeak": {},
  "snmp-server enable traps mpls fast-reroute protected": {},
  "snmp-server enable traps mpls ldp": {},
  "snmp-server enable traps mpls rfc ldp": {},
  "snmp-server enable traps mpls traffic-eng": {},
  "snmp-server enable traps mpls vpn": {},
  "snmp-server enable traps msdp": {},
  "snmp-server enable traps mvpn": {},
  "snmp-server enable traps nhrp nhc": {},
  "snmp-server enable traps nhrp nhp": {},
  "snmp-server enable traps nhrp nhs": {},
  "snmp-server enable traps nhrp quota-exceeded": {},
  "snmp-server enable traps ospf cisco-specific errors": {},
  "snmp-server enable traps ospf cisco-specific lsa": {},
  "snmp-server enable traps ospf cisco-specific retransmit": {},
  "snmp-server enable traps ospf cisco-specific state-change nssa-trans-change": {},
  "snmp-server enable traps ospf cisco-specific state-change shamlink interface": {},
  "snmp-server enable traps ospf cisco-specific state-change shamlink neighbor": {},
  "snmp-server enable traps ospf errors": {},
  "snmp-server enable traps ospf lsa": {},
  "snmp-server enable traps ospf retransmit": {},
  "snmp-server enable traps ospf state-change": {},
  "snmp-server enable traps ospfv3 errors": {},
  "snmp-server enable traps ospfv3 state-change": {},
  "snmp-server enable traps pim neighbor-change rp-mapping-change invalid-pim-message": {},
  "snmp-server enable traps pppoe": {},
  "snmp-server enable traps pw vc": {},
  "snmp-server enable traps resource-policy": {},
  "snmp-server enable traps rf": {},
  "snmp-server enable traps rsvp": {},
  "snmp-server enable traps snmp authentication linkdown linkup coldstart warmstart": {},
  "snmp-server enable traps srst": {},
  "snmp-server enable traps stun": {},
  "snmp-server enable traps syslog": {},
  "snmp-server enable traps trustsec-sxp conn-srcaddr-err msg-parse-err conn-config-err binding-err conn-up conn-down binding-expn-fail oper-nodeid-change binding-conflict": {},
  "snmp-server enable traps tty": {},
  "snmp-server enable traps voice": {},
  "snmp-server enable traps vrfmib vrf-up vrf-down vnet-trunk-up vnet-trunk-down": {},
  "snmp-server enable traps vrrp": {},
  "snmp-server enable traps waas": {},
  "snmp-server enable traps xgcp": {},
  "snmp-server host 192.168.146.137 version 2c storm": {},
  "username storm privilege 15 password 0 storm": {},
  "version 15.7": {},
  "vrf definition ford": {
    "address-family ipv4": {
      "route-target export 400:400": {},
      "route-target import 400:400": {}
    },
    "exit-address-family": {},
    "rd 400:400": {}
  }
}