+++ MPLS-CORE-PE1 with via 'cli': executing command 'show lisp service ipv4' +++
show lisp service ipv4
show lisp service ipv4
            ^
% Invalid input detected at '^' marker.

MPLS-CORE-PE1#
+++ MPLS-CORE-PE1 with via 'cli': executing command 'show lisp service ipv4 summary' +++
show lisp service ipv4 summary
show lisp service ipv4 summary
            ^
% Invalid input detected at '^' marker.

MPLS-CORE-PE1#
+++ MPLS-CORE-PE1 with via 'cli': executing command 'show lisp service ipv6 summary' +++
show lisp service ipv6 summary
show lisp service ipv6 summary
            ^
% Invalid input detected at '^' marker.

MPLS-CORE-PE1#
+++ MPLS-CORE-PE1 with via 'cli': executing command 'show lisp service ipv6' +++
show lisp service ipv6
show lisp service ipv6
            ^
% Invalid input detected at '^' marker.

MPLS-CORE-PE1#
+++ MPLS-CORE-PE1 with via 'cli': executing command 'show lisp service ethernet summary' +++
show lisp service ethernet summary
show lisp service ethernet summary
            ^
% Invalid input detected at '^' marker.

MPLS-CORE-PE1#
+++ MPLS-CORE-PE1 with via 'cli': executing command 'show lisp service ethernet' +++
show lisp service ethernet
show lisp service ethernet
            ^
% Invalid input detected at '^' marker.

MPLS-CORE-PE1#
Could not learn <class 'genie.libs.parser.ios.show_lisp.ShowLispService'>
Invalid command has been executed
+====================================================================================================================================================+
| Commands for learning feature 'Lisp'                                                                                                               |
+====================================================================================================================================================+
| - Commands not accepted on the device                                                                                                              |
|----------------------------------------------------------------------------------------------------------------------------------------------------|
|   cmd: <class 'genie.libs.parser.ios.show_lisp.ShowLispService'>, arguments: {'service':'ipv4'}                                                    |
|   cmd: <class 'genie.libs.parser.ios.show_lisp.ShowLispServiceSummary'>, arguments: {'service':'ipv4'}                                             |
|   cmd: <class 'genie.libs.parser.ios.show_lisp.ShowLispServiceSummary'>, arguments: {'service':'ipv6'}                                             |
|   cmd: <class 'genie.libs.parser.ios.show_lisp.ShowLispService'>, arguments: {'service':'ipv6'}                                                    |
|   cmd: <class 'genie.libs.parser.ios.show_lisp.ShowLispServiceSummary'>, arguments: {'service':'ethernet'}                                         |
|   cmd: <class 'genie.libs.parser.ios.show_lisp.ShowLispService'>, arguments: {'service':'ethernet'}                                                |
|====================================================================================================================================================|
