+++ IGW-1 with via 'cli': executing command 'show access-lists' +++
show access-lists
IGW-1#
Could not learn <class 'genie.libs.parser.ios.show_acl.ShowAccessLists'>
Show Command: show access-lists
Parser Output is empty
+====================================================================================================================================================+
| Commands for learning feature 'Acl'                                                                                                                |
+====================================================================================================================================================+
| - Commands with empty output                                                                                                                       |
|----------------------------------------------------------------------------------------------------------------------------------------------------|
|   cmd: <class 'genie.libs.parser.ios.show_acl.ShowAccessLists'>                                                                                    |
|====================================================================================================================================================|
